traffic_light_controller/simulation/qsim/traffic_light_controller.msim.vcd
$comment
	File created using the following command:
		vcd file traffic_light_controller.msim.vcd -direction
$end
$date
	Mon Sep 18 10:41:31 2023
$end
$version
	ModelSim Version 10.5b
$end
$timescale
	1ps
$end

$scope module traffic_light_controller_vlg_vec_tst $end
$var reg 1 ! clock $end
$var wire 1 " green $end
$var wire 1 # red $end
$var wire 1 $ yellow $end

$scope module i1 $end
$var wire 1 % gnd $end
$var wire 1 & vcc $end
$var wire 1 ' unknown $end
$var tri1 1 ( devclrn $end
$var tri1 1 ) devpor $end
$var tri1 1 * devoe $end
$var wire 1 + red~output_o $end
$var wire 1 , yellow~output_o $end
$var wire 1 - green~output_o $end
$var wire 1 . clock~input_o $end
$var wire 1 / clock~inputclkctrl_outclk $end
$var wire 1 0 state.ST_INIT~feeder_combout $end
$var wire 1 1 state.ST_INIT~q $end
$var wire 1 2 state~10_combout $end
$var wire 1 3 state.ST_GREEN~q $end
$var wire 1 4 state.ST_YELLOW~feeder_combout $end
$var wire 1 5 state.ST_YELLOW~q $end
$var wire 1 6 state.ST_RED~feeder_combout $end
$var wire 1 7 state.ST_RED~q $end
$var wire 1 8 red~reg0feeder_combout $end
$var wire 1 9 red~reg0_q $end
$var wire 1 : yellow~reg0feeder_combout $end
$var wire 1 ; yellow~reg0_q $end
$var wire 1 < green~reg0feeder_combout $end
$var wire 1 = green~reg0_q $end
$upscope $end
$upscope $end
$enddefinitions $end
#0
$dumpvars
0!
0"
0#
0$
0%
1&
x'
1(
1)
1*
0+
0,
0-
0.
0/
10
01
12
03
04
05
06
07
08
09
0:
0;
0<
0=
$end
#10000
1!
1.
1/
13
11
1<
14
02
#20000
0!
0.
0/
#30000
1!
1.
1/
15
03
1=
1-
1"
1:
16
0<
04
#40000
0!
0.
0/
#50000
1!
1.
1/
17
05
0=
1;
1,
0-
0"
1$
18
12
0:
06
#60000
0!
0.
0/
#70000
1!
1.
1/
07
13
0;
19
1+
0,
0$
1#
08
02
1<
14
#80000
0!
0.
0/
#90000
1!
1.
1/
15
03
1=
09
0+
1-
1"
0#
1:
16
0<
04
#100000
0!
0.
0/
#110000
1!
1.
1/
17
05
0=
1;
1,
0-
0"
1$
18
12
0:
06
#120000
0!
0.
0/
#130000
1!
1.
1/
07
13
0;
19
1+
0,
0$
1#
08
02
1<
14
#140000
0!
0.
0/
#150000
1!
1.
1/
15
03
1=
09
0+
1-
1"
0#
1:
16
0<
04
#160000
0!
0.
0/
#170000
1!
1.
1/
17
05
0=
1;
1,
0-
0"
1$
18
12
0:
06
#180000
0!
0.
0/
#190000
1!
1.
1/
07
13
0;
19
1+
0,
0$
1#
08
02
1<
14
#200000
0!
0.
0/
#210000
1!
1.
1/
15
03
1=
09
0+
1-
1"
0#
1:
16
0<
04
#220000
0!
0.
0/
#230000
1!
1.
1/
17
05
0=
1;
1,
0-
0"
1$
18
12
0:
06
#240000
0!
0.
0/
#250000
1!
1.
1/
07
13
0;
19
1+
0,
0$
1#
08
02
1<
14
#260000
0!
0.
0/
#270000
1!
1.
1/
15
03
1=
09
0+
1-
1"
0#
1:
16
0<
04
#280000
0!
0.
0/
#290000
1!
1.
1/
17
05
0=
1;
1,
0-
0"
1$
18
12
0:
06
#300000
0!
0.
0/
#310000
1!
1.
1/
07
13
0;
19
1+
0,
0$
1#
08
02
1<
14
#320000
0!
0.
0/
#330000
1!
1.
1/
15
03
1=
09
0+
1-
1"
0#
1:
16
0<
04
#340000
0!
0.
0/
#350000
1!
1.
1/
17
05
0=
1;
1,
0-
0"
1$
18
12
0:
06
#360000
0!
0.
0/
#370000
1!
1.
1/
07
13
0;
19
1+
0,
0$
1#
08
02
1<
14
#380000
0!
0.
0/
#390000
1!
1.
1/
15
03
1=
09
0+
1-
1"
0#
1:
16
0<
04
#400000
0!
0.
0/
#410000
1!
1.
1/
17
05
0=
1;
1,
0-
0"
1$
18
12
0:
06
#420000
0!
0.
0/
#430000
1!
1.
1/
07
13
0;
19
1+
0,
0$
1#
08
02
1<
14
#440000
0!
0.
0/
#450000
1!
1.
1/
15
03
1=
09
0+
1-
1"
0#
1:
16
0<
04
#460000
0!
0.
0/
#470000
1!
1.
1/
17
05
0=
1;
1,
0-
0"
1$
18
12
0:
06
#480000
0!
0.
0/
#490000
1!
1.
1/
07
13
0;
19
1+
0,
0$
1#
08
02
1<
14
#500000
0!
0.
0/
#510000
1!
1.
1/
15
03
1=
09
0+
1-
1"
0#
1:
16
0<
04
#520000
0!
0.
0/
#530000
1!
1.
1/
17
05
0=
1;
1,
0-
0"
1$
18
12
0:
06
#540000
0!
0.
0/
#550000
1!
1.
1/
07
13
0;
19
1+
0,
0$
1#
08
02
1<
14
#560000
0!
0.
0/
#570000
1!
1.
1/
15
03
1=
09
0+
1-
1"
0#
1:
16
0<
04
#580000
0!
0.
0/
#590000
1!
1.
1/
17
05
0=
1;
1,
0-
0"
1$
18
12
0:
06
#600000
0!
0.
0/
#610000
1!
1.
1/
07
13
0;
19
1+
0,
0$
1#
08
02
1<
14
#620000
0!
0.
0/
#630000
1!
1.
1/
15
03
1=
09
0+
1-
1"
0#
1:
16
0<
04
#640000
0!
0.
0/
#650000
1!
1.
1/
17
05
0=
1;
1,
0-
0"
1$
18
12
0:
06
#660000
0!
0.
0/
#670000
1!
1.
1/
07
13
0;
19
1+
0,
0$
1#
08
02
1<
14
#680000
0!
0.
0/
#690000
1!
1.
1/
15
03
1=
09
0+
1-
1"
0#
1:
16
0<
04
#700000
0!
0.
0/
#710000
1!
1.
1/
17
05
0=
1;
1,
0-
0"
1$
18
12
0:
06
#720000
0!
0.
0/
#730000
1!
1.
1/
07
13
0;
19
1+
0,
0$
1#
08
02
1<
14
#740000
0!
0.
0/
#750000
1!
1.
1/
15
03
1=
09
0+
1-
1"
0#
1:
16
0<
04
#760000
0!
0.
0/
#770000
1!
1.
1/
17
05
0=
1;
1,
0-
0"
1$
18
12
0:
06
#780000
0!
0.
0/
#790000
1!
1.
1/
07
13
0;
19
1+
0,
0$
1#
08
02
1<
14
#800000
0!
0.
0/
#810000
1!
1.
1/
15
03
1=
09
0+
1-
1"
0#
1:
16
0<
04
#820000
0!
0.
0/
#830000
1!
1.
1/
17
05
0=
1;
1,
0-
0"
1$
18
12
0:
06
#840000
0!
0.
0/
#850000
1!
1.
1/
07
13
0;
19
1+
0,
0$
1#
08
02
1<
14
#860000
0!
0.
0/
#870000
1!
1.
1/
15
03
1=
09
0+
1-
1"
0#
1:
16
0<
04
#880000
0!
0.
0/
#890000
1!
1.
1/
17
05
0=
1;
1,
0-
0"
1$
18
12
0:
06
#900000
0!
0.
0/
#910000
1!
1.
1/
07
13
0;
19
1+
0,
0$
1#
08
02
1<
14
#920000
0!
0.
0/
#930000
1!
1.
1/
15
03
1=
09
0+
1-
1"
0#
1:
16
0<
04
#940000
0!
0.
0/
#950000
1!
1.
1/
17
05
0=
1;
1,
0-
0"
1$
18
12
0:
06
#960000
0!
0.
0/
#970000
1!
1.
1/
07
13
0;
19
1+
0,
0$
1#
08
02
1<
14
#980000
0!
0.
0/
#990000
1!
1.
1/
15
03
1=
09
0+
1-
1"
0#
1:
16
0<
04
